[
  {
    "id": 1,
    "title": "Xiaomi RoboRock S5 Max",
    "price": "13499",
    "image": "https://i2.rozetka.ua/goods/18708076/xiaomi_roborock_s5_max_white_images_18708076411.jpg",
    "number": "111",
    "color": "white",
    "cart": false,
    "favourite": false
  },
  {
    "id": 2,
    "title": "iRobot Roomba 980",
    "price": "16599",
    "image": "https://i1.rozetka.ua/goods/12939660/irobot_roomba_980_images_12939660294.jpg",
    "number": "112",
    "color": "brown",
    "cart": false,
    "favourite": false
  },
  {
    "id": 3,
    "title": "iRobot Roomba i7",
    "price": "19799",
    "image": "https://i2.rozetka.ua/goods/12939965/irobot_roomba_i7_images_12939965520.jpg",
    "number": "113",
    "color": "grey",
    "cart": false,
    "favourite": false
  },
  {
    "id": 4,
    "title": "iRobot Braava Jet М6",
    "price": "17999",
    "image": "https://i8.rozetka.ua/goods/14376891/copy_irobot_braava_jet_240_5d9c4bbaefe2e_images_14376891149.jpg",
    "number": "114",
    "color": "white",
    "cart": false,
    "favourite": false
  },
  {
    "id": 5,
    "title": "CECOTEC Conga 5090 Cyclone",
    "price": "15999",
    "image": "https://i8.rozetka.ua/goods/19673734/cecotec_conga5090_images_19673734813.jpg",
    "number": "115",
    "color": "black",
    "cart": false,
    "favourite": false
  },
  {
    "id": 6,
    "title": "SAMSUNG VR10M7030WW/EV",
    "price": "10999",
    "image": "https://i2.rozetka.ua/goods/13969692/samsung_vr10m7030ww_ev_images_13969692190.jpg",
    "number": "116",
    "color": "black",
    "cart": false,
    "favourite": false
  },
  {
    "id": 7,
    "title": "iRobot Roomba i7+",
    "price": "27799",
    "image": "https://i1.rozetka.ua/goods/13970130/irobot_roomba_i7_plus_images_13970130238.jpg",
    "number": "117",
    "color": "black",
    "cart": false,
    "favourite": false
  },
  {
    "id": 8,
    "title": "SAMSUNG VR20K9350WK/EV",
    "price": "24999",
    "image": "https://i1.rozetka.ua/goods/13970699/9797323_images_13970699266.jpg",
    "number": "118",
    "color": "black",
    "cart": false,
    "favourite": false
  },
  {
    "id": 9,
    "title": "Ecovacs Winbot X",
    "price": "12999",
    "image": "https://i2.rozetka.ua/goods/9397938/ecovacs_winbot_x_images_9397938984.jpg",
    "number": "119",
    "color": "white",
    "cart": false,
    "favourite": false
  },
  {
    "id": 10,
    "title": "MIELE SLQL0 Scout RX2",
    "price": "29999",
    "image": "https://i8.rozetka.ua/goods/15682885/miele_slql0_scout_rx2_grafitovo-seryj_images_15682885086.jpg",
    "number": "120",
    "color": "graphite",
    "cart": false,
    "favourite": false
  },
  {
    "id": 11,
    "title": "ANKER Eufy RoboVac G10 Hybrid",
    "price": "15804",
    "image": "https://stylus.ua/thumbs/378x378/6b/33/1413483.jpeg",
    "number": "121",
    "color": "black",
    "cart": false,
    "favourite": false
  },
  {
    "id": 12,
    "title": "Polaris PVCR 3000 Cyclonic PRO",
    "price": "17783",
    "image": "https://stylus.ua/thumbs/378x378/65/80/1534408.jpeg",
    "number": "122",
    "color": "grey",
    "cart": false,
    "favourite": false
  }
]

